{
  "posts": {"total": 200,
"per_page": 15,
"current_page": 1,
"last_page": 14,
"next_page_url": "https://vuetable.ratiw.net/api/users?page=2",
"prev_page_url": null,
"from": 1,
"to": 15,
"data":[
    { "id": 1, "title": "Post 1" },
    { "id": 2, "title": "Post 2" },
    { "id": 3, "title": "Post 3" }
  ]},
  "comments": [
    { "id": 1, "body": "some comment", "postId": 1 },
    { "id": 2, "body": "some comment", "postId": 1 }
  ],
  "profile": {
    "name": "typicode"
  }
}
